Data Preparation
…
tidy_pm_asthmahospitalizations

## # A tibble: 168 × 7
##    name             measure geo_type_name geo_join_id geo_place_name time_period
##    <chr>            <chr>   <chr>         <chr>       <chr>          <chr>      
##  1 Asthma emergenc… Estima… UHF42         201         Greenpoint     2012-2014  
##  2 Asthma emergenc… Estima… UHF42         201         Greenpoint     2015-2017  
##  3 Asthma emergenc… Estima… UHF42         101         Kingsbridge -… 2012-2014  
##  4 Asthma emergenc… Estima… UHF42         301         Washington He… 2012-2014  
##  5 Asthma emergenc… Estima… UHF42         501         Port Richmond  2012-2014  
##  6 Asthma emergenc… Estima… UHF42         501         Port Richmond  2015-2017  
##  7 Asthma emergenc… Estima… UHF42         203         Bedford Stuyv… 2015-2017  
##  8 Asthma emergenc… Estima… UHF42         105         Crotona -Trem… 2015-2017  
##  9 Asthma emergenc… Estima… UHF42         206         Borough Park   2015-2017  
## 10 Asthma emergenc… Estima… UHF42         107         Hunts Point -… 2015-2017  
## # ℹ 158 more rows
## # ℹ 1 more variable: pm2.5_mcgm3 <dbl>
…
